Step_2/simulation/qsim/temporizador.msim.vcd
$comment
	File created using the following command:
		vcd file temporizador.msim.vcd -direction
$end
$date
	Sat Apr 14 20:52:57 2018
$end
$version
	ModelSim Version 10.5b
$end
$timescale
	1ps
$end

$scope module temporizador_vhd_vec_tst $end
$var wire 1 ! clk $end
$var wire 1 " fim $end
$var wire 1 # m [5] $end
$var wire 1 $ m [4] $end
$var wire 1 % m [3] $end
$var wire 1 & m [2] $end
$var wire 1 ' m [1] $end
$var wire 1 ( m [0] $end
$var wire 1 ) reset $end
$var wire 1 * s [5] $end
$var wire 1 + s [4] $end
$var wire 1 , s [3] $end
$var wire 1 - s [2] $end
$var wire 1 . s [1] $end
$var wire 1 / s [0] $end
$var wire 1 0 start $end

$scope module i1 $end
$var wire 1 1 gnd $end
$var wire 1 2 vcc $end
$var wire 1 3 unknown $end
$var wire 1 4 devoe $end
$var wire 1 5 devclrn $end
$var wire 1 6 devpor $end
$var wire 1 7 ww_devoe $end
$var wire 1 8 ww_devclrn $end
$var wire 1 9 ww_devpor $end
$var wire 1 : ww_clk $end
$var wire 1 ; ww_start $end
$var wire 1 < ww_reset $end
$var wire 1 = ww_s [5] $end
$var wire 1 > ww_s [4] $end
$var wire 1 ? ww_s [3] $end
$var wire 1 @ ww_s [2] $end
$var wire 1 A ww_s [1] $end
$var wire 1 B ww_s [0] $end
$var wire 1 C ww_m [5] $end
$var wire 1 D ww_m [4] $end
$var wire 1 E ww_m [3] $end
$var wire 1 F ww_m [2] $end
$var wire 1 G ww_m [1] $end
$var wire 1 H ww_m [0] $end
$var wire 1 I ww_fim $end
$var wire 1 J \s[0]~output_o\ $end
$var wire 1 K \s[1]~output_o\ $end
$var wire 1 L \s[2]~output_o\ $end
$var wire 1 M \s[3]~output_o\ $end
$var wire 1 N \s[4]~output_o\ $end
$var wire 1 O \s[5]~output_o\ $end
$var wire 1 P \m[0]~output_o\ $end
$var wire 1 Q \m[1]~output_o\ $end
$var wire 1 R \m[2]~output_o\ $end
$var wire 1 S \m[3]~output_o\ $end
$var wire 1 T \m[4]~output_o\ $end
$var wire 1 U \m[5]~output_o\ $end
$var wire 1 V \fim~output_o\ $end
$var wire 1 W \clk~input_o\ $end
$var wire 1 X \Add0~0_combout\ $end
$var wire 1 Y \reset~input_o\ $end
$var wire 1 Z \start~input_o\ $end
$var wire 1 [ \Add0~1\ $end
$var wire 1 \ \Add0~2_combout\ $end
$var wire 1 ] \seg~5_combout\ $end
$var wire 1 ^ \Add1~0_combout\ $end
$var wire 1 _ \Add1~2_combout\ $end
$var wire 1 ` \seg[3]~3_combout\ $end
$var wire 1 a \min[0]~0_combout\ $end
$var wire 1 b \Add1~1\ $end
$var wire 1 c \Add1~3_combout\ $end
$var wire 1 d \Add1~5_combout\ $end
$var wire 1 e \Add1~4\ $end
$var wire 1 f \Add1~6_combout\ $end
$var wire 1 g \Add1~8_combout\ $end
$var wire 1 h \Add1~7\ $end
$var wire 1 i \Add1~9_combout\ $end
$var wire 1 j \Add1~11_combout\ $end
$var wire 1 k \LessThan1~0_combout\ $end
$var wire 1 l \Add1~10\ $end
$var wire 1 m \Add1~12_combout\ $end
$var wire 1 n \Add1~14_combout\ $end
$var wire 1 o \Add1~13\ $end
$var wire 1 p \Add1~15_combout\ $end
$var wire 1 q \Add1~17_combout\ $end
$var wire 1 r \Add1~16\ $end
$var wire 1 s \Add1~18_combout\ $end
$var wire 1 t \Add1~20_combout\ $end
$var wire 1 u \Add1~19\ $end
$var wire 1 v \Add1~21_combout\ $end
$var wire 1 w \Add1~23_combout\ $end
$var wire 1 x \LessThan1~1_combout\ $end
$var wire 1 y \Add1~22\ $end
$var wire 1 z \Add1~24_combout\ $end
$var wire 1 { \Add1~26_combout\ $end
$var wire 1 | \Add1~25\ $end
$var wire 1 } \Add1~27_combout\ $end
$var wire 1 ~ \Add1~29_combout\ $end
$var wire 1 !! \Add1~28\ $end
$var wire 1 "! \Add1~30_combout\ $end
$var wire 1 #! \Add1~32_combout\ $end
$var wire 1 $! \Add1~31\ $end
$var wire 1 %! \Add1~33_combout\ $end
$var wire 1 &! \Add1~35_combout\ $end
$var wire 1 '! \LessThan1~2_combout\ $end
$var wire 1 (! \Add1~34\ $end
$var wire 1 )! \Add1~36_combout\ $end
$var wire 1 *! \Add1~38_combout\ $end
$var wire 1 +! \Add1~37\ $end
$var wire 1 ,! \Add1~39_combout\ $end
$var wire 1 -! \Add1~41_combout\ $end
$var wire 1 .! \Add1~40\ $end
$var wire 1 /! \Add1~42_combout\ $end
$var wire 1 0! \Add1~44_combout\ $end
$var wire 1 1! \Add1~43\ $end
$var wire 1 2! \Add1~45_combout\ $end
$var wire 1 3! \Add1~47_combout\ $end
$var wire 1 4! \LessThan1~3_combout\ $end
$var wire 1 5! \LessThan1~4_combout\ $end
$var wire 1 6! \Add1~46\ $end
$var wire 1 7! \Add1~48_combout\ $end
$var wire 1 8! \Add1~50_combout\ $end
$var wire 1 9! \Add1~49\ $end
$var wire 1 :! \Add1~51_combout\ $end
$var wire 1 ;! \Add1~53_combout\ $end
$var wire 1 <! \Add1~52\ $end
$var wire 1 =! \Add1~54_combout\ $end
$var wire 1 >! \Add1~56_combout\ $end
$var wire 1 ?! \Add1~55\ $end
$var wire 1 @! \Add1~57_combout\ $end
$var wire 1 A! \Add1~59_combout\ $end
$var wire 1 B! \LessThan1~5_combout\ $end
$var wire 1 C! \Add1~58\ $end
$var wire 1 D! \Add1~60_combout\ $end
$var wire 1 E! \Add1~62_combout\ $end
$var wire 1 F! \Add1~61\ $end
$var wire 1 G! \Add1~63_combout\ $end
$var wire 1 H! \Add1~65_combout\ $end
$var wire 1 I! \Add1~64\ $end
$var wire 1 J! \Add1~66_combout\ $end
$var wire 1 K! \Add1~68_combout\ $end
$var wire 1 L! \Add1~67\ $end
$var wire 1 M! \Add1~69_combout\ $end
$var wire 1 N! \Add1~71_combout\ $end
$var wire 1 O! \LessThan1~6_combout\ $end
$var wire 1 P! \Add1~70\ $end
$var wire 1 Q! \Add1~72_combout\ $end
$var wire 1 R! \Add1~74_combout\ $end
$var wire 1 S! \Add1~73\ $end
$var wire 1 T! \Add1~75_combout\ $end
$var wire 1 U! \Add1~77_combout\ $end
$var wire 1 V! \Add1~76\ $end
$var wire 1 W! \Add1~78_combout\ $end
$var wire 1 X! \Add1~80_combout\ $end
$var wire 1 Y! \Add1~79\ $end
$var wire 1 Z! \Add1~81_combout\ $end
$var wire 1 [! \Add1~83_combout\ $end
$var wire 1 \! \LessThan1~7_combout\ $end
$var wire 1 ]! \Add1~82\ $end
$var wire 1 ^! \Add1~84_combout\ $end
$var wire 1 _! \Add1~86_combout\ $end
$var wire 1 `! \Add1~85\ $end
$var wire 1 a! \Add1~87_combout\ $end
$var wire 1 b! \Add1~89_combout\ $end
$var wire 1 c! \Add1~88\ $end
$var wire 1 d! \Add1~90_combout\ $end
$var wire 1 e! \Add1~92_combout\ $end
$var wire 1 f! \LessThan1~8_combout\ $end
$var wire 1 g! \LessThan1~9_combout\ $end
$var wire 1 h! \Add1~91\ $end
$var wire 1 i! \Add1~93_combout\ $end
$var wire 1 j! \Add1~95_combout\ $end
$var wire 1 k! \process_0~0_combout\ $end
$var wire 1 l! \seg[3]~4_combout\ $end
$var wire 1 m! \Add0~3\ $end
$var wire 1 n! \Add0~4_combout\ $end
$var wire 1 o! \seg~6_combout\ $end
$var wire 1 p! \Add0~5\ $end
$var wire 1 q! \Add0~6_combout\ $end
$var wire 1 r! \seg~7_combout\ $end
$var wire 1 s! \Equal0~0_combout\ $end
$var wire 1 t! \Add0~7\ $end
$var wire 1 u! \Add0~8_combout\ $end
$var wire 1 v! \seg~8_combout\ $end
$var wire 1 w! \Add0~9\ $end
$var wire 1 x! \Add0~10_combout\ $end
$var wire 1 y! \seg~9_combout\ $end
$var wire 1 z! \Add0~11\ $end
$var wire 1 {! \Add0~12_combout\ $end
$var wire 1 |! \seg~11_combout\ $end
$var wire 1 }! \Add0~13\ $end
$var wire 1 ~! \Add0~14_combout\ $end
$var wire 1 !" \seg~12_combout\ $end
$var wire 1 "" \Equal0~1_combout\ $end
$var wire 1 #" \Add0~15\ $end
$var wire 1 $" \Add0~16_combout\ $end
$var wire 1 %" \seg~13_combout\ $end
$var wire 1 &" \Add0~17\ $end
$var wire 1 '" \Add0~18_combout\ $end
$var wire 1 (" \seg~14_combout\ $end
$var wire 1 )" \Add0~19\ $end
$var wire 1 *" \Add0~20_combout\ $end
$var wire 1 +" \seg~15_combout\ $end
$var wire 1 ," \Add0~21\ $end
$var wire 1 -" \Add0~22_combout\ $end
$var wire 1 ." \seg~16_combout\ $end
$var wire 1 /" \Equal0~2_combout\ $end
$var wire 1 0" \Add0~23\ $end
$var wire 1 1" \Add0~24_combout\ $end
$var wire 1 2" \seg~17_combout\ $end
$var wire 1 3" \Add0~25\ $end
$var wire 1 4" \Add0~26_combout\ $end
$var wire 1 5" \seg~18_combout\ $end
$var wire 1 6" \Add0~27\ $end
$var wire 1 7" \Add0~28_combout\ $end
$var wire 1 8" \seg~19_combout\ $end
$var wire 1 9" \Add0~29\ $end
$var wire 1 :" \Add0~30_combout\ $end
$var wire 1 ;" \seg~20_combout\ $end
$var wire 1 <" \Equal0~3_combout\ $end
$var wire 1 =" \Equal0~4_combout\ $end
$var wire 1 >" \Add0~31\ $end
$var wire 1 ?" \Add0~32_combout\ $end
$var wire 1 @" \seg~21_combout\ $end
$var wire 1 A" \Add0~33\ $end
$var wire 1 B" \Add0~34_combout\ $end
$var wire 1 C" \seg~22_combout\ $end
$var wire 1 D" \Add0~35\ $end
$var wire 1 E" \Add0~36_combout\ $end
$var wire 1 F" \seg~23_combout\ $end
$var wire 1 G" \Add0~37\ $end
$var wire 1 H" \Add0~38_combout\ $end
$var wire 1 I" \seg~24_combout\ $end
$var wire 1 J" \Equal0~5_combout\ $end
$var wire 1 K" \Add0~39\ $end
$var wire 1 L" \Add0~40_combout\ $end
$var wire 1 M" \seg~25_combout\ $end
$var wire 1 N" \Add0~41\ $end
$var wire 1 O" \Add0~42_combout\ $end
$var wire 1 P" \seg~26_combout\ $end
$var wire 1 Q" \Add0~43\ $end
$var wire 1 R" \Add0~44_combout\ $end
$var wire 1 S" \seg~27_combout\ $end
$var wire 1 T" \Add0~45\ $end
$var wire 1 U" \Add0~46_combout\ $end
$var wire 1 V" \seg~28_combout\ $end
$var wire 1 W" \Equal0~6_combout\ $end
$var wire 1 X" \Add0~47\ $end
$var wire 1 Y" \Add0~48_combout\ $end
$var wire 1 Z" \seg~29_combout\ $end
$var wire 1 [" \Add0~49\ $end
$var wire 1 \" \Add0~50_combout\ $end
$var wire 1 ]" \seg~30_combout\ $end
$var wire 1 ^" \Add0~51\ $end
$var wire 1 _" \Add0~52_combout\ $end
$var wire 1 `" \seg~31_combout\ $end
$var wire 1 a" \Add0~53\ $end
$var wire 1 b" \Add0~54_combout\ $end
$var wire 1 c" \seg~32_combout\ $end
$var wire 1 d" \Equal0~7_combout\ $end
$var wire 1 e" \Add0~55\ $end
$var wire 1 f" \Add0~56_combout\ $end
$var wire 1 g" \seg~33_combout\ $end
$var wire 1 h" \Add0~57\ $end
$var wire 1 i" \Add0~58_combout\ $end
$var wire 1 j" \seg~34_combout\ $end
$var wire 1 k" \Equal0~8_combout\ $end
$var wire 1 l" \Equal0~9_combout\ $end
$var wire 1 m" \Add0~59\ $end
$var wire 1 n" \Add0~60_combout\ $end
$var wire 1 o" \seg~35_combout\ $end
$var wire 1 p" \Add0~61\ $end
$var wire 1 q" \Add0~62_combout\ $end
$var wire 1 r" \seg[31]~10_combout\ $end
$var wire 1 s" \seg~2_combout\ $end
$var wire 1 t" \fim~5_combout\ $end
$var wire 1 u" \fim~4_combout\ $end
$var wire 1 v" \fim~reg0_q\ $end
$var wire 1 w" seg [31] $end
$var wire 1 x" seg [30] $end
$var wire 1 y" seg [29] $end
$var wire 1 z" seg [28] $end
$var wire 1 {" seg [27] $end
$var wire 1 |" seg [26] $end
$var wire 1 }" seg [25] $end
$var wire 1 ~" seg [24] $end
$var wire 1 !# seg [23] $end
$var wire 1 "# seg [22] $end
$var wire 1 ## seg [21] $end
$var wire 1 $# seg [20] $end
$var wire 1 %# seg [19] $end
$var wire 1 &# seg [18] $end
$var wire 1 '# seg [17] $end
$var wire 1 (# seg [16] $end
$var wire 1 )# seg [15] $end
$var wire 1 *# seg [14] $end
$var wire 1 +# seg [13] $end
$var wire 1 ,# seg [12] $end
$var wire 1 -# seg [11] $end
$var wire 1 .# seg [10] $end
$var wire 1 /# seg [9] $end
$var wire 1 0# seg [8] $end
$var wire 1 1# seg [7] $end
$var wire 1 2# seg [6] $end
$var wire 1 3# seg [5] $end
$var wire 1 4# seg [4] $end
$var wire 1 5# seg [3] $end
$var wire 1 6# seg [2] $end
$var wire 1 7# seg [1] $end
$var wire 1 8# seg [0] $end
$var wire 1 9# min [31] $end
$var wire 1 :# min [30] $end
$var wire 1 ;# min [29] $end
$var wire 1 <# min [28] $end
$var wire 1 =# min [27] $end
$var wire 1 ># min [26] $end
$var wire 1 ?# min [25] $end
$var wire 1 @# min [24] $end
$var wire 1 A# min [23] $end
$var wire 1 B# min [22] $end
$var wire 1 C# min [21] $end
$var wire 1 D# min [20] $end
$var wire 1 E# min [19] $end
$var wire 1 F# min [18] $end
$var wire 1 G# min [17] $end
$var wire 1 H# min [16] $end
$var wire 1 I# min [15] $end
$var wire 1 J# min [14] $end
$var wire 1 K# min [13] $end
$var wire 1 L# min [12] $end
$var wire 1 M# min [11] $end
$var wire 1 N# min [10] $end
$var wire 1 O# min [9] $end
$var wire 1 P# min [8] $end
$var wire 1 Q# min [7] $end
$var wire 1 R# min [6] $end
$var wire 1 S# min [5] $end
$var wire 1 T# min [4] $end
$var wire 1 U# min [3] $end
$var wire 1 V# min [2] $end
$var wire 1 W# min [1] $end
$var wire 1 X# min [0] $end
$var wire 1 Y# ALT_INV_min [5] $end
$var wire 1 Z# ALT_INV_min [4] $end
$var wire 1 [# ALT_INV_min [3] $end
$var wire 1 \# ALT_INV_min [2] $end
$var wire 1 ]# ALT_INV_min [1] $end
$var wire 1 ^# ALT_INV_min [0] $end
$var wire 1 _# ALT_INV_seg [5] $end
$var wire 1 `# ALT_INV_seg [4] $end
$var wire 1 a# ALT_INV_seg [3] $end
$var wire 1 b# ALT_INV_seg [2] $end
$var wire 1 c# ALT_INV_seg [1] $end
$var wire 1 d# ALT_INV_seg [0] $end
$upscope $end
$upscope $end
$enddefinitions $end
#0
$dumpvars
0!
0"
0)
10
01
12
x3
14
15
16
17
18
19
0:
1;
0<
0I
1J
1K
0L
1M
1N
1O
1P
1Q
0R
1S
1T
1U
0V
0W
0X
0Y
1Z
1[
1\
0]
0^
1_
1`
0a
1b
1c
0d
0e
0f
0g
1h
1i
0j
0k
0l
1m
0n
1o
1p
0q
0r
0s
0t
1u
0v
0w
0x
0y
0z
0{
1|
0}
0~
0!!
0"!
0#!
1$!
0%!
0&!
1'!
0(!
0)!
0*!
1+!
0,!
0-!
0.!
0/!
00!
11!
02!
03!
14!
05!
06!
07!
08!
19!
0:!
0;!
0<!
0=!
0>!
1?!
0@!
0A!
1B!
0C!
0D!
0E!
1F!
0G!
0H!
0I!
0J!
0K!
1L!
0M!
0N!
1O!
0P!
0Q!
0R!
1S!
0T!
0U!
0V!
0W!
0X!
1Y!
0Z!
0[!
1\!
0]!
0^!
0_!
1`!
0a!
0b!
0c!
0d!
0e!
1f!
0g!
1h!
0i!
0j!
1k!
1l!
0m!
0n!
0o!
1p!
1q!
0r!
0s!
0t!
1u!
0v!
1w!
1x!
0y!
0z!
0{!
0|!
1}!
0~!
0!"
0""
0#"
0$"
0%"
1&"
0'"
0("
0)"
0*"
0+"
1,"
0-"
0."
1/"
00"
01"
02"
13"
04"
05"
06"
07"
08"
19"
0:"
0;"
1<"
0="
0>"
0?"
0@"
1A"
0B"
0C"
0D"
0E"
0F"
1G"
0H"
0I"
1J"
0K"
0L"
0M"
1N"
0O"
0P"
0Q"
0R"
0S"
1T"
0U"
0V"
1W"
0X"
0Y"
0Z"
1["
0\"
0]"
0^"
0_"
0`"
1a"
0b"
0c"
1d"
0e"
0f"
0g"
1h"
0i"
0j"
1k"
0l"
0m"
0n"
0o"
1p"
0q"
0r"
1s"
0t"
0u"
0v"
1*
1+
1,
0-
1.
1/
1#
1$
1%
0&
1'
1(
1=
1>
1?
0@
1A
1B
1C
1D
1E
0F
1G
1H
0w"
0x"
0y"
0z"
0{"
0|"
0}"
0~"
0!#
0"#
0##
0$#
0%#
0&#
0'#
0(#
0)#
0*#
0+#
0,#
0-#
0.#
0/#
00#
01#
02#
03#
04#
05#
06#
07#
08#
09#
0:#
0;#
0<#
0=#
0>#
0?#
0@#
0A#
0B#
0C#
0D#
0E#
0F#
0G#
0H#
0I#
0J#
0K#
0L#
0M#
0N#
0O#
0P#
0Q#
0R#
0S#
0T#
0U#
0V#
0W#
0X#
1Y#
1Z#
1[#
x\#
1]#
1^#
1_#
1`#
1a#
xb#
1c#
1d#
$end
#5000
1!
1:
1W
18#
0d#
1X
0[
0\
0s"
0J
1]
0B
0/
#10000
0!
0:
0W
#15000
1!
1:
1W
17#
08#
1d#
0c#
0X
1[
1\
1m!
1n!
0p!
0]
0\
0m!
1s"
0K
1J
0n!
1p!
1]
0q!
1o!
0A
1B
1r!
1q!
0o!
1/
0.
0r!
#20000
0!
0:
0W
#25000
1!
1:
1W
18#
0d#
1X
0[
1\
1m!
0s"
0J
1n!
0p!
0]
0B
0q!
1o!
0/
1r!
#30000
0!
0:
0W
#35000
1!
1:
1W
07#
16#
15#
08#
1d#
0a#
1c#
0X
1[
1q!
1t!
0n!
1p!
0\
0m!
1n!
1]
0q!
0t!
0o!
0u!
0r!
1\
1s"
1L
1K
0M
1J
0]
1v!
1u!
1r!
1o!
1@
1A
0?
1B
1-
0v!
1/
1.
0,
#40000
0!
0:
0W
#45000
1!
1:
1W
18#
0d#
1X
0[
0\
0s"
0J
1]
0B
0/
#50000
0!
0:
0W
#55000
1!
1:
1W
17#
08#
1d#
0c#
0X
1[
1\
1m!
0n!
0]
0\
0m!
1s"
0K
1J
1n!
1]
0o!
0A
1B
1o!
1/
0.
#60000
0!
0:
0W
#65000
1!
1:
1W
18#
0d#
1X
0[
1\
1m!
0s"
0J
0n!
0]
0B
0o!
0/
#70000
0!
0:
0W
#75000
1!
1:
1W
07#
06#
08#
1d#
1c#
0X
1[
1n!
0p!
0\
0m!
0n!
1p!
1]
1q!
1t!
1o!
1\
1s"
0L
1K
1J
0]
0u!
0r!
0q!
0t!
0o!
0@
1A
1B
0-
1u!
1r!
1v!
1/
1.
0v!
#80000
0!
0:
0W
#85000
1!
1:
1W
18#
0d#
1X
0[
0\
0s"
0J
1]
0B
0/
#90000
0!
0:
0W
#95000
1!
1:
1W
17#
08#
1d#
0c#
0X
1[
1\
1m!
1n!
0p!
0]
0\
0m!
1s"
0K
1J
0n!
1p!
1]
1q!
1t!
1o!
0A
1B
0u!
0r!
0q!
0t!
0o!
1/
0.
1u!
1r!
1v!
0v!
#100000
0!
0:
0W
#105000
1!
1:
1W
18#
0d#
1X
0[
1s!
1\
1m!
0s"
0J
1n!
0p!
0]
0B
1q!
1t!
1o!
0/
0u!
0r!
1v!
#110000
0!
0:
0W
#115000
1!
1:
1W
07#
16#
05#
14#
08#
1d#
0`#
1a#
1c#
0X
1[
1u!
0w!
0q!
0t!
0n!
1p!
0\
0m!
0s!
1n!
1]
1q!
0o!
0u!
1w!
1r!
0x!
0v!
1\
1s"
1L
1K
1M
0N
1J
0]
1y!
1x!
1v!
0r!
1o!
1@
1A
1?
0>
1B
1-
0y!
1/
1.
1,
0+
#120000
0!
0:
0W
#125000
1!
1:
1W
18#
0d#
1X
0[
0\
0s"
0J
1]
0B
0/
#130000
0!
0:
0W
#135000
1!
1:
1W
17#
08#
1d#
0c#
0X
1[
1\
1m!
0n!
0]
0\
0m!
1s"
0K
1J
1n!
1]
0o!
0A
1B
1o!
1/
0.
#140000
0!
0:
0W
#145000
1!
1:
1W
18#
0d#
1X
0[
1\
1m!
0s"
0J
0n!
0]
0B
0o!
0/
#150000
0!
0:
0W
#155000
1!
1:
1W
07#
06#
08#
1d#
1c#
0X
1[
1n!
0p!
0\
0m!
0n!
1p!
1]
0q!
1o!
1\
1s"
0L
1K
1J
0]
1r!
1q!
0o!
0@
1A
1B
0-
0r!
1/
1.
#160000
0!
0:
0W
#165000
1!
1:
1W
18#
0d#
1X
0[
0\
0s"
0J
1]
0B
0/
#170000
0!
0:
0W
#175000
1!
1:
1W
17#
08#
1d#
0c#
0X
1[
1\
1m!
1n!
0p!
0]
0\
0m!
1s"
0K
1J
0n!
1p!
1]
0q!
1o!
0A
1B
1r!
1q!
0o!
1/
0.
0r!
#180000
0!
0:
0W
#185000
1!
1:
1W
18#
0d#
1X
0[
1\
1m!
0s"
0J
1n!
0p!
0]
0B
0q!
1o!
0/
1r!
#190000
0!
0:
0W
#195000
1!
1:
1W
07#
16#
15#
08#
1d#
0a#
1c#
0X
1[
1q!
1t!
0n!
1p!
0\
0m!
1n!
1]
0q!
0t!
0o!
1u!
0w!
0r!
1\
1s"
1L
1K
0M
1J
0]
0x!
0v!
0u!
1w!
1r!
1o!
1@
1A
0?
1B
1-
1x!
1v!
1y!
1/
1.
0,
0y!
#200000
0!
0:
0W
#205000
1!
1:
1W
18#
0d#
1X
0[
0\
0s"
0J
1]
0B
0/
#210000
0!
0:
0W
#215000
1!
1:
1W
17#
08#
1d#
0c#
0X
1[
1\
1m!
0n!
0]
0\
0m!
1s"
0K
1J
1n!
1]
0o!
0A
1B
1o!
1/
0.
#220000
0!
0:
0W
#225000
1!
1:
1W
18#
0d#
1X
0[
1\
1m!
0s"
0J
0n!
0]
0B
0o!
0/
#230000
0!
0:
0W
#235000
1!
1:
1W
07#
06#
08#
1d#
1c#
0X
1[
1n!
0p!
0\
0m!
0n!
1p!
1]
1q!
1t!
1o!
1\
1s"
0L
1K
1J
0]
1u!
0w!
0r!
0q!
0t!
0o!
0@
1A
1B
0-
0u!
1w!
1r!
0x!
0v!
1/
1.
1y!
1x!
1v!
0y!
#240000
0!
0:
0W
#245000
1!
1:
1W
18#
0d#
1X
0[
0\
0s"
0J
1]
0B
0/
#250000
0!
0:
0W
#255000
1!
1:
1W
17#
08#
1d#
0c#
0X
1[
1\
1m!
1n!
0p!
0]
0\
0m!
1s"
0K
1J
0n!
1p!
1]
1q!
1t!
1o!
0A
1B
1u!
0w!
0r!
0q!
0t!
0o!
1/
0.
0u!
1w!
1r!
0x!
0v!
1y!
1x!
1v!
0y!
#260000
0!
0:
0W
#265000
1!
1:
1W
18#
0d#
1X
0[
1s!
1\
1m!
0s"
0J
1n!
0p!
0]
0B
1q!
1t!
1o!
0/
1u!
0w!
0r!
0x!
0v!
1y!
#270000
0!
0:
0W
#275000
1!
1:
1W
07#
16#
05#
04#
13#
08#
1d#
0_#
1`#
1a#
1c#
0X
1[
1x!
1z!
0u!
1w!
0q!
0t!
0n!
1p!
0\
0m!
0s!
1n!
1]
1q!
0o!
1u!
1r!
0x!
0z!
1v!
1{!
0}!
0y!
1\
1s"
1L
1K
1M
1N
0O
1J
0]
1~!
1#"
1|!
0{!
1}!
1y!
0v!
0r!
1o!
1@
1A
1?
1>
0=
1B
1-
0~!
0#"
0|!
1$"
0&"
1!"
1/
1.
1,
1+
0*
1'"
1)"
1%"
0$"
1&"
0!"
0'"
0)"
0%"
1*"
0,"
1("
1-"
10"
1+"
0*"
1,"
0("
0-"
00"
0+"
11"
03"
1."
14"
16"
12"
01"
13"
0."
04"
06"
02"
17"
09"
15"
1:"
1>"
18"
07"
19"
05"
0:"
0>"
08"
1?"
0A"
1;"
1B"
1D"
1@"
0?"
1A"
0;"
0B"
0D"
0@"
1E"
0G"
1C"
1H"
1K"
1F"
0E"
1G"
0C"
0H"
0K"
0F"
1L"
0N"
1I"
1O"
1Q"
1M"
0L"
1N"
0I"
0O"
0Q"
0M"
1R"
0T"
1P"
1U"
1X"
1S"
0R"
1T"
0P"
0U"
0X"
0S"
1Y"
0["
1V"
1\"
1^"
1Z"
0Y"
1["
0V"
0\"
0^"
0Z"
1_"
0a"
1]"
1b"
1e"
1`"
0_"
1a"
0]"
0b"
0e"
0`"
1f"
0h"
1c"
1i"
1m"
1g"
0f"
1h"
0c"
0i"
0m"
0g"
1n"
0p"
1j"
1q"
1o"
0n"
1p"
0j"
0q"
0o"
1r"
0r"
#280000
0!
0:
0W
#285000
1!
1:
1W
18#
0d#
1X
0[
0\
0s"
0J
1]
0B
0/
#290000
0!
0:
0W
#295000
1!
1:
1W
17#
08#
1d#
0c#
0X
1[
1\
1m!
0n!
0]
0\
0m!
1s"
0K
1J
1n!
1]
0o!
0A
1B
1o!
1/
0.
#300000
0!
0:
0W
#305000
1!
1:
1W
18#
0d#
1X
0[
1\
1m!
0s"
0J
0n!
0]
0B
0o!
0/
#310000
0!
0:
0W
#315000
1!
1:
1W
07#
06#
08#
1d#
1c#
0X
1[
1n!
0p!
0\
0m!
0n!
1p!
1]
0q!
1o!
1\
1s"
0L
1K
1J
0]
1r!
1q!
0o!
0@
1A
1B
0-
0r!
1/
1.
#320000
0!
0:
0W
#325000
1!
1:
1W
18#
0d#
1X
0[
0\
0s"
0J
1]
0B
0/
#330000
0!
0:
0W
#335000
1!
1:
1W
17#
08#
1d#
0c#
0X
1[
1\
1m!
1n!
0p!
0]
0\
0m!
1s"
0K
1J
0n!
1p!
1]
0q!
1o!
0A
1B
1r!
1q!
0o!
1/
0.
0r!
#340000
0!
0:
0W
#345000
1!
1:
1W
18#
0d#
1X
0[
1\
1m!
0s"
0J
1n!
0p!
0]
0B
0q!
1o!
0/
1r!
#350000
0!
0:
0W
#355000
1!
1:
1W
07#
16#
15#
08#
1d#
0a#
1c#
0X
1[
1q!
1t!
0n!
1p!
0\
0m!
1n!
1]
0q!
0t!
0o!
0u!
0r!
1\
1s"
1L
1K
0M
1J
0]
1v!
1u!
1r!
1o!
1@
1A
0?
1B
1-
0v!
1/
1.
0,
#360000
0!
0:
0W
#365000
1!
1:
1W
18#
0d#
1X
0[
0\
0s"
0J
1]
0B
0/
#370000
0!
0:
0W
#375000
1!
1:
1W
17#
08#
1d#
0c#
0X
1[
1\
1m!
0n!
0]
0\
0m!
1s"
0K
1J
1n!
1]
0o!
0A
1B
1o!
1/
0.
#380000
0!
0:
0W
#385000
1!
1:
1W
18#
0d#
1X
0[
1\
1m!
0s"
0J
0n!
0]
0B
0o!
0/
#390000
0!
0:
0W
#395000
1!
1:
1W
07#
06#
08#
1d#
1c#
0X
1[
1n!
0p!
0\
0m!
0n!
1p!
1]
1q!
1t!
1o!
1\
1s"
0L
1K
1J
0]
0u!
0r!
0q!
0t!
0o!
0@
1A
1B
0-
1u!
1r!
1v!
1/
1.
0v!
#400000
0!
0:
0W
#405000
1!
1:
1W
18#
0d#
1X
0[
0\
0s"
0J
1]
0B
0/
#410000
0!
0:
0W
#415000
1!
1:
1W
17#
08#
1d#
0c#
0X
1[
1\
1m!
1n!
0p!
0]
0\
0m!
1s"
0K
1J
0n!
1p!
1]
1q!
1t!
1o!
0A
1B
0u!
0r!
0q!
0t!
0o!
1/
0.
1u!
1r!
1v!
0v!
#420000
0!
0:
0W
#425000
1!
1:
1W
18#
0d#
1X
0[
1s!
1\
1m!
0s"
0J
1n!
0p!
0]
0B
1q!
1t!
1o!
0/
0u!
0r!
1v!
#430000
0!
0:
0W
#435000
1!
1:
1W
07#
16#
05#
14#
08#
1d#
0`#
1a#
1c#
0X
1[
1u!
0w!
1""
0q!
0t!
0n!
1p!
0\
0m!
0s!
1n!
1]
1q!
0o!
0u!
1w!
1r!
1x!
1z!
0v!
1\
1s"
1L
1K
1M
0N
1J
0]
1{!
0}!
0y!
0x!
0z!
1v!
0r!
1o!
1@
1A
1?
0>
1B
1-
0{!
1}!
1y!
1~!
1#"
1|!
1/
1.
1,
0+
1$"
0&"
1!"
0~!
0#"
0|!
0$"
1&"
0!"
1'"
1)"
1%"
1*"
0,"
1("
0'"
0)"
0%"
0*"
1,"
0("
1-"
10"
1+"
11"
03"
1."
0-"
00"
0+"
01"
13"
0."
14"
16"
12"
17"
09"
15"
04"
06"
02"
07"
19"
05"
1:"
1>"
18"
1?"
0A"
1;"
0:"
0>"
08"
0?"
1A"
0;"
1B"
1D"
1@"
1E"
0G"
1C"
0B"
0D"
0@"
0E"
1G"
0C"
1H"
1K"
1F"
1L"
0N"
1I"
0H"
0K"
0F"
0L"
1N"
0I"
1O"
1Q"
1M"
1R"
0T"
1P"
0O"
0Q"
0M"
0R"
1T"
0P"
1U"
1X"
1S"
1Y"
0["
1V"
0U"
0X"
0S"
0Y"
1["
0V"
1\"
1^"
1Z"
1_"
0a"
1]"
0\"
0^"
0Z"
0_"
1a"
0]"
1b"
1e"
1`"
1f"
0h"
1c"
0b"
0e"
0`"
0f"
1h"
0c"
1i"
1m"
1g"
1n"
0p"
1j"
0i"
0m"
0g"
0n"
1p"
0j"
1q"
1o"
1r"
0q"
0o"
0r"
#440000
0!
0:
0W
#445000
1!
1:
1W
18#
0d#
1X
0[
0\
0s"
0J
1]
0B
0/
#450000
0!
0:
0W
#455000
1!
1:
1W
17#
08#
1d#
0c#
0X
1[
1\
1m!
0n!
0]
0\
0m!
1s"
0K
1J
1n!
1]
0o!
0A
1B
1o!
1/
0.
#460000
0!
0:
0W
#465000
1!
1:
1W
18#
0d#
1X
0[
1\
1m!
0s"
0J
0n!
0]
0B
0o!
0/
#470000
0!
0:
0W
