Step_3/simulation/qsim/temporizador.msim.vcd
$comment
	File created using the following command:
		vcd file temporizador.msim.vcd -direction
$end
$date
	Sat Apr 14 21:19:29 2018
$end
$version
	ModelSim Version 10.5b
$end
$timescale
	1ps
$end

$scope module temporizador_vlg_vec_tst $end
$var reg 1 ! clk $end
$var reg 1 " m_mais $end
$var reg 1 # m_menos $end
$var reg 1 $ reset $end
$var reg 1 % s_mais $end
$var reg 1 & s_menos $end
$var reg 1 ' start $end
$var wire 1 ( fim $end
$var wire 1 ) m [5] $end
$var wire 1 * m [4] $end
$var wire 1 + m [3] $end
$var wire 1 , m [2] $end
$var wire 1 - m [1] $end
$var wire 1 . m [0] $end
$var wire 1 / s [5] $end
$var wire 1 0 s [4] $end
$var wire 1 1 s [3] $end
$var wire 1 2 s [2] $end
$var wire 1 3 s [1] $end
$var wire 1 4 s [0] $end

$scope module i1 $end
$var wire 1 5 gnd $end
$var wire 1 6 vcc $end
$var wire 1 7 unknown $end
$var tri1 1 8 devclrn $end
$var tri1 1 9 devpor $end
$var tri1 1 : devoe $end
$var wire 1 ; s[0]~output_o $end
$var wire 1 < s[1]~output_o $end
$var wire 1 = s[2]~output_o $end
$var wire 1 > s[3]~output_o $end
$var wire 1 ? s[4]~output_o $end
$var wire 1 @ s[5]~output_o $end
$var wire 1 A m[0]~output_o $end
$var wire 1 B m[1]~output_o $end
$var wire 1 C m[2]~output_o $end
$var wire 1 D m[3]~output_o $end
$var wire 1 E m[4]~output_o $end
$var wire 1 F m[5]~output_o $end
$var wire 1 G fim~output_o $end
$var wire 1 H clk~input_o $end
$var wire 1 I reset~input_o $end
$var wire 1 J start~input_o $end
$var wire 1 K process_0~0_combout $end
$var wire 1 L Add2~0_combout $end
$var wire 1 M Add1~0_combout $end
$var wire 1 N seg~0_combout $end
$var wire 1 O s_mais~input_o $end
$var wire 1 P m_mais~input_o $end
$var wire 1 Q min[0]~9_combout $end
$var wire 1 R Add3~64_combout $end
$var wire 1 S Add3~128_combout $end
$var wire 1 T min~0_combout $end
$var wire 1 U Equal1~0_combout $end
$var wire 1 V Equal1~1_combout $end
$var wire 1 W Equal1~2_combout $end
$var wire 1 X Equal1~3_combout $end
$var wire 1 Y Equal1~4_combout $end
$var wire 1 Z Equal1~5_combout $end
$var wire 1 [ Equal1~6_combout $end
$var wire 1 \ Equal1~7_combout $end
$var wire 1 ] Equal1~8_combout $end
$var wire 1 ^ Equal1~9_combout $end
$var wire 1 _ min~1_combout $end
$var wire 1 ` m_menos~input_o $end
$var wire 1 a min~2_combout $end
$var wire 1 b min~3_combout $end
$var wire 1 c min~4_combout $end
$var wire 1 d min~5_combout $end
$var wire 1 e min~6_combout $end
$var wire 1 f min~7_combout $end
$var wire 1 g min[0]~8_combout $end
$var wire 1 h Add3~65 $end
$var wire 1 i Add3~66_combout $end
$var wire 1 j Add3~129_combout $end
$var wire 1 k Add3~67 $end
$var wire 1 l Add3~68_combout $end
$var wire 1 m Add3~130_combout $end
$var wire 1 n Add3~69 $end
$var wire 1 o Add3~70_combout $end
$var wire 1 p Add3~131_combout $end
$var wire 1 q Add3~71 $end
$var wire 1 r Add3~72_combout $end
$var wire 1 s Add3~132_combout $end
$var wire 1 t Add3~73 $end
$var wire 1 u Add3~74_combout $end
$var wire 1 v Add3~133_combout $end
$var wire 1 w Add3~75 $end
$var wire 1 x Add3~76_combout $end
$var wire 1 y Add3~135_combout $end
$var wire 1 z Add3~77 $end
$var wire 1 { Add3~78_combout $end
$var wire 1 | Add3~136_combout $end
$var wire 1 } Add3~79 $end
$var wire 1 ~ Add3~80_combout $end
$var wire 1 !! Add3~137_combout $end
$var wire 1 "! Add3~81 $end
$var wire 1 #! Add3~82_combout $end
$var wire 1 $! Add3~138_combout $end
$var wire 1 %! Add3~83 $end
$var wire 1 &! Add3~84_combout $end
$var wire 1 '! Add3~139_combout $end
$var wire 1 (! Add3~85 $end
$var wire 1 )! Add3~86_combout $end
$var wire 1 *! Add3~140_combout $end
$var wire 1 +! Add3~87 $end
$var wire 1 ,! Add3~88_combout $end
$var wire 1 -! Add3~141_combout $end
$var wire 1 .! Add3~89 $end
$var wire 1 /! Add3~90_combout $end
$var wire 1 0! Add3~142_combout $end
$var wire 1 1! Add3~91 $end
$var wire 1 2! Add3~92_combout $end
$var wire 1 3! Add3~143_combout $end
$var wire 1 4! Add3~93 $end
$var wire 1 5! Add3~94_combout $end
$var wire 1 6! Add3~144_combout $end
$var wire 1 7! Add3~95 $end
$var wire 1 8! Add3~96_combout $end
$var wire 1 9! Add3~145_combout $end
$var wire 1 :! Add3~97 $end
$var wire 1 ;! Add3~98_combout $end
$var wire 1 <! Add3~146_combout $end
$var wire 1 =! Add3~99 $end
$var wire 1 >! Add3~100_combout $end
$var wire 1 ?! Add3~147_combout $end
$var wire 1 @! Add3~101 $end
$var wire 1 A! Add3~102_combout $end
$var wire 1 B! Add3~148_combout $end
$var wire 1 C! Add3~103 $end
$var wire 1 D! Add3~104_combout $end
$var wire 1 E! Add3~149_combout $end
$var wire 1 F! Add3~105 $end
$var wire 1 G! Add3~106_combout $end
$var wire 1 H! Add3~150_combout $end
$var wire 1 I! Add3~107 $end
$var wire 1 J! Add3~108_combout $end
$var wire 1 K! Add3~151_combout $end
$var wire 1 L! Add3~109 $end
$var wire 1 M! Add3~110_combout $end
$var wire 1 N! Add3~152_combout $end
$var wire 1 O! Add3~111 $end
$var wire 1 P! Add3~112_combout $end
$var wire 1 Q! Add3~153_combout $end
$var wire 1 R! Add3~113 $end
$var wire 1 S! Add3~114_combout $end
$var wire 1 T! Add3~154_combout $end
$var wire 1 U! Add3~115 $end
$var wire 1 V! Add3~116_combout $end
$var wire 1 W! Add3~155_combout $end
$var wire 1 X! Add3~117 $end
$var wire 1 Y! Add3~118_combout $end
$var wire 1 Z! Add3~156_combout $end
$var wire 1 [! Add3~119 $end
$var wire 1 \! Add3~120_combout $end
$var wire 1 ]! Add3~157_combout $end
$var wire 1 ^! Add3~121 $end
$var wire 1 _! Add3~122_combout $end
$var wire 1 `! Add3~158_combout $end
$var wire 1 a! Add3~123 $end
$var wire 1 b! Add3~124_combout $end
$var wire 1 c! Add3~159_combout $end
$var wire 1 d! Add3~125 $end
$var wire 1 e! Add3~126_combout $end
$var wire 1 f! Add3~134_combout $end
$var wire 1 g! seg[0]~8_combout $end
$var wire 1 h! seg[27]~9_combout $end
$var wire 1 i! Add2~1 $end
$var wire 1 j! Add2~2_combout $end
$var wire 1 k! Add1~1 $end
$var wire 1 l! Add1~2_combout $end
$var wire 1 m! seg~11_combout $end
$var wire 1 n! seg~12_combout $end
$var wire 1 o! seg[0]~10_combout $end
$var wire 1 p! Add2~3 $end
$var wire 1 q! Add2~4_combout $end
$var wire 1 r! Add1~3 $end
$var wire 1 s! Add1~4_combout $end
$var wire 1 t! seg[2]~13_combout $end
$var wire 1 u! seg[2]~16_combout $end
$var wire 1 v! Add2~5 $end
$var wire 1 w! Add2~6_combout $end
$var wire 1 x! Add1~5 $end
$var wire 1 y! Add1~6_combout $end
$var wire 1 z! seg~17_combout $end
$var wire 1 {! seg~18_combout $end
$var wire 1 |! Add2~7 $end
$var wire 1 }! Add2~8_combout $end
$var wire 1 ~! Add1~7 $end
$var wire 1 !" Add1~8_combout $end
$var wire 1 "" seg~19_combout $end
$var wire 1 #" seg~20_combout $end
$var wire 1 $" Add2~9 $end
$var wire 1 %" Add2~10_combout $end
$var wire 1 &" Add1~9 $end
$var wire 1 '" Add1~10_combout $end
$var wire 1 (" seg~21_combout $end
$var wire 1 )" seg~22_combout $end
$var wire 1 *" Add2~11 $end
$var wire 1 +" Add2~12_combout $end
$var wire 1 ," Add1~11 $end
$var wire 1 -" Add1~12_combout $end
$var wire 1 ." seg[6]~35_combout $end
$var wire 1 /" seg[6]~36_combout $end
$var wire 1 0" Add2~13 $end
$var wire 1 1" Add2~14_combout $end
$var wire 1 2" Add1~13 $end
$var wire 1 3" Add1~14_combout $end
$var wire 1 4" seg[7]~37_combout $end
$var wire 1 5" seg[7]~38_combout $end
$var wire 1 6" Add2~15 $end
$var wire 1 7" Add2~16_combout $end
$var wire 1 8" Add1~15 $end
$var wire 1 9" Add1~16_combout $end
$var wire 1 :" seg[8]~39_combout $end
$var wire 1 ;" seg[8]~40_combout $end
$var wire 1 <" Add2~17 $end
$var wire 1 =" Add2~18_combout $end
$var wire 1 >" Add1~17 $end
$var wire 1 ?" Add1~18_combout $end
$var wire 1 @" seg[9]~41_combout $end
$var wire 1 A" seg[9]~42_combout $end
$var wire 1 B" Equal3~1_combout $end
$var wire 1 C" Add2~19 $end
$var wire 1 D" Add2~20_combout $end
$var wire 1 E" Add1~19 $end
$var wire 1 F" Add1~20_combout $end
$var wire 1 G" seg[10]~43_combout $end
$var wire 1 H" seg[10]~44_combout $end
$var wire 1 I" Add2~21 $end
$var wire 1 J" Add2~22_combout $end
$var wire 1 K" Add1~21 $end
$var wire 1 L" Add1~22_combout $end
$var wire 1 M" seg[11]~45_combout $end
$var wire 1 N" seg[11]~46_combout $end
$var wire 1 O" Add2~23 $end
$var wire 1 P" Add2~24_combout $end
$var wire 1 Q" Add1~23 $end
$var wire 1 R" Add1~24_combout $end
$var wire 1 S" seg[12]~47_combout $end
$var wire 1 T" seg[12]~48_combout $end
$var wire 1 U" Add2~25 $end
$var wire 1 V" Add2~26_combout $end
$var wire 1 W" Add1~25 $end
$var wire 1 X" Add1~26_combout $end
$var wire 1 Y" seg[13]~49_combout $end
$var wire 1 Z" seg[13]~50_combout $end
$var wire 1 [" Equal3~2_combout $end
$var wire 1 \" Add2~27 $end
$var wire 1 ]" Add2~28_combout $end
$var wire 1 ^" Add1~27 $end
$var wire 1 _" Add1~28_combout $end
$var wire 1 `" seg[14]~51_combout $end
$var wire 1 a" seg[14]~52_combout $end
$var wire 1 b" Add2~29 $end
$var wire 1 c" Add2~30_combout $end
$var wire 1 d" Add1~29 $end
$var wire 1 e" Add1~30_combout $end
$var wire 1 f" seg[15]~53_combout $end
$var wire 1 g" seg[15]~54_combout $end
$var wire 1 h" Add2~31 $end
$var wire 1 i" Add2~32_combout $end
$var wire 1 j" Add1~31 $end
$var wire 1 k" Add1~32_combout $end
$var wire 1 l" seg[16]~55_combout $end
$var wire 1 m" seg[16]~56_combout $end
$var wire 1 n" Add2~33 $end
$var wire 1 o" Add2~34_combout $end
$var wire 1 p" Add1~33 $end
$var wire 1 q" Add1~34_combout $end
$var wire 1 r" seg[17]~57_combout $end
$var wire 1 s" seg[17]~58_combout $end
$var wire 1 t" Equal3~3_combout $end
$var wire 1 u" Add2~35 $end
$var wire 1 v" Add2~36_combout $end
$var wire 1 w" Add1~35 $end
$var wire 1 x" Add1~36_combout $end
$var wire 1 y" seg[18]~59_combout $end
$var wire 1 z" seg[18]~60_combout $end
$var wire 1 {" Add2~37 $end
$var wire 1 |" Add2~38_combout $end
$var wire 1 }" Add1~37 $end
$var wire 1 ~" Add1~38_combout $end
$var wire 1 !# seg[19]~61_combout $end
$var wire 1 "# seg[19]~62_combout $end
$var wire 1 ## Add2~39 $end
$var wire 1 $# Add2~40_combout $end
$var wire 1 %# Add1~39 $end
$var wire 1 &# Add1~40_combout $end
$var wire 1 '# seg[20]~63_combout $end
$var wire 1 (# seg[20]~64_combout $end
$var wire 1 )# Add2~41 $end
$var wire 1 *# Add2~42_combout $end
$var wire 1 +# Add1~41 $end
$var wire 1 ,# Add1~42_combout $end
$var wire 1 -# seg[21]~65_combout $end
$var wire 1 .# seg[21]~66_combout $end
$var wire 1 /# Equal3~4_combout $end
$var wire 1 0# Equal3~5_combout $end
$var wire 1 1# Add2~43 $end
$var wire 1 2# Add2~44_combout $end
$var wire 1 3# Add1~43 $end
$var wire 1 4# Add1~44_combout $end
$var wire 1 5# seg[22]~67_combout $end
$var wire 1 6# seg[22]~68_combout $end
$var wire 1 7# Add2~45 $end
$var wire 1 8# Add2~46_combout $end
$var wire 1 9# Add1~45 $end
$var wire 1 :# Add1~46_combout $end
$var wire 1 ;# seg[23]~69_combout $end
$var wire 1 <# seg[23]~70_combout $end
$var wire 1 =# Add2~47 $end
$var wire 1 ># Add2~48_combout $end
$var wire 1 ?# Add1~47 $end
$var wire 1 @# Add1~48_combout $end
$var wire 1 A# seg[24]~71_combout $end
$var wire 1 B# seg[24]~72_combout $end
$var wire 1 C# Add2~49 $end
$var wire 1 D# Add2~50_combout $end
$var wire 1 E# Add1~49 $end
$var wire 1 F# Add1~50_combout $end
$var wire 1 G# seg[25]~73_combout $end
$var wire 1 H# seg[25]~74_combout $end
$var wire 1 I# Equal3~6_combout $end
$var wire 1 J# Add2~51 $end
$var wire 1 K# Add2~53 $end
$var wire 1 L# Add2~54_combout $end
$var wire 1 M# Add1~51 $end
$var wire 1 N# Add1~53 $end
$var wire 1 O# Add1~54_combout $end
$var wire 1 P# seg[27]~27_combout $end
$var wire 1 Q# seg[27]~28_combout $end
$var wire 1 R# Add2~55 $end
$var wire 1 S# Add2~56_combout $end
$var wire 1 T# Add1~55 $end
$var wire 1 U# Add1~56_combout $end
$var wire 1 V# seg[28]~29_combout $end
$var wire 1 W# seg[28]~30_combout $end
$var wire 1 X# Add2~57 $end
$var wire 1 Y# Add2~58_combout $end
$var wire 1 Z# Add1~57 $end
$var wire 1 [# Add1~58_combout $end
$var wire 1 \# seg[29]~31_combout $end
$var wire 1 ]# seg[29]~32_combout $end
$var wire 1 ^# Add2~59 $end
$var wire 1 _# Add2~60_combout $end
$var wire 1 `# Add1~59 $end
$var wire 1 a# Add1~60_combout $end
$var wire 1 b# seg[30]~33_combout $end
$var wire 1 c# seg[30]~34_combout $end
$var wire 1 d# Equal3~10_combout $end
$var wire 1 e# seg[0]~3_combout $end
$var wire 1 f# LessThan5~0_combout $end
$var wire 1 g# seg~4_combout $end
$var wire 1 h# s_menos~input_o $end
$var wire 1 i# seg[0]~5_combout $end
$var wire 1 j# seg[0]~6_combout $end
$var wire 1 k# seg[0]~7_combout $end
$var wire 1 l# seg[31]~15_combout $end
$var wire 1 m# Add2~52_combout $end
$var wire 1 n# Add1~52_combout $end
$var wire 1 o# seg[26]~25_combout $end
$var wire 1 p# seg[26]~26_combout $end
$var wire 1 q# Equal3~0_combout $end
$var wire 1 r# Equal3~7_combout $end
$var wire 1 s# Equal3~8_combout $end
$var wire 1 t# Equal3~9_combout $end
$var wire 1 u# seg[31]~14_combout $end
$var wire 1 v# Add2~61 $end
$var wire 1 w# Add2~62_combout $end
$var wire 1 x# Add1~61 $end
$var wire 1 y# Add1~62_combout $end
$var wire 1 z# seg[31]~23_combout $end
$var wire 1 {# seg[31]~24_combout $end
$var wire 1 |# seg[0]~1_combout $end
$var wire 1 }# seg~2_combout $end
$var wire 1 ~# fim~0_combout $end
$var wire 1 !$ fim~1_combout $end
$var wire 1 "$ fim~reg0_q $end
$var wire 1 #$ seg [31] $end
$var wire 1 $$ seg [30] $end
$var wire 1 %$ seg [29] $end
$var wire 1 &$ seg [28] $end
$var wire 1 '$ seg [27] $end
$var wire 1 ($ seg [26] $end
$var wire 1 )$ seg [25] $end
$var wire 1 *$ seg [24] $end
$var wire 1 +$ seg [23] $end
$var wire 1 ,$ seg [22] $end
$var wire 1 -$ seg [21] $end
$var wire 1 .$ seg [20] $end
$var wire 1 /$ seg [19] $end
$var wire 1 0$ seg [18] $end
$var wire 1 1$ seg [17] $end
$var wire 1 2$ seg [16] $end
$var wire 1 3$ seg [15] $end
$var wire 1 4$ seg [14] $end
$var wire 1 5$ seg [13] $end
$var wire 1 6$ seg [12] $end
$var wire 1 7$ seg [11] $end
$var wire 1 8$ seg [10] $end
$var wire 1 9$ seg [9] $end
$var wire 1 :$ seg [8] $end
$var wire 1 ;$ seg [7] $end
$var wire 1 <$ seg [6] $end
$var wire 1 =$ seg [5] $end
$var wire 1 >$ seg [4] $end
$var wire 1 ?$ seg [3] $end
$var wire 1 @$ seg [2] $end
$var wire 1 A$ seg [1] $end
$var wire 1 B$ seg [0] $end
$var wire 1 C$ min [31] $end
$var wire 1 D$ min [30] $end
$var wire 1 E$ min [29] $end
$var wire 1 F$ min [28] $end
$var wire 1 G$ min [27] $end
$var wire 1 H$ min [26] $end
$var wire 1 I$ min [25] $end
$var wire 1 J$ min [24] $end
$var wire 1 K$ min [23] $end
$var wire 1 L$ min [22] $end
$var wire 1 M$ min [21] $end
$var wire 1 N$ min [20] $end
$var wire 1 O$ min [19] $end
$var wire 1 P$ min [18] $end
$var wire 1 Q$ min [17] $end
$var wire 1 R$ min [16] $end
$var wire 1 S$ min [15] $end
$var wire 1 T$ min [14] $end
$var wire 1 U$ min [13] $end
$var wire 1 V$ min [12] $end
$var wire 1 W$ min [11] $end
$var wire 1 X$ min [10] $end
$var wire 1 Y$ min [9] $end
$var wire 1 Z$ min [8] $end
$var wire 1 [$ min [7] $end
$var wire 1 \$ min [6] $end
$var wire 1 ]$ min [5] $end
$var wire 1 ^$ min [4] $end
$var wire 1 _$ min [3] $end
$var wire 1 `$ min [2] $end
$var wire 1 a$ min [1] $end
$var wire 1 b$ min [0] $end
$upscope $end
$upscope $end
$enddefinitions $end
#0
$dumpvars
0!
0"
0#
0$
0%
0&
1'
0(
1.
1-
0,
1+
1*
1)
14
13
02
11
10
1/
05
16
x7
18
19
1:
1;
1<
0=
1>
1?
1@
1A
1B
0C
1D
1E
1F
0G
0H
0I
1J
0K
0L
0M
1N
0O
0P
0Q
0R
1S
0T
1U
1V
1W
1X
1Y
1Z
1[
1\
0]
0^
0_
0`
0a
0b
0c
0d
0e
0f
0g
1h
1i
0j
0k
0l
0m
1n
1o
0p
0q
1r
0s
1t
1u
0v
0w
0x
0y
1z
0{
0|
0}
0~
0!!
1"!
0#!
0$!
0%!
0&!
0'!
1(!
0)!
0*!
0+!
0,!
0-!
1.!
0/!
00!
01!
02!
03!
14!
05!
06!
07!
08!
09!
1:!
0;!
0<!
0=!
0>!
0?!
1@!
0A!
0B!
0C!
0D!
0E!
1F!
0G!
0H!
0I!
0J!
0K!
1L!
0M!
0N!
0O!
0P!
0Q!
1R!
0S!
0T!
0U!
0V!
0W!
1X!
0Y!
0Z!
0[!
0\!
0]!
1^!
0_!
0`!
0a!
0b!
0c!
1d!
0e!
0f!
1g!
0h!
1i!
1j!
1k!
0l!
1m!
0n!
1o!
0p!
0q!
0r!
1s!
0t!
0u!
1v!
1w!
0x!
1y!
1z!
0{!
0|!
1}!
1~!
1!"
1""
0#"
1$"
1%"
0&"
1'"
1("
0)"
0*"
0+"
1,"
0-"
0."
0/"
10"
01"
02"
03"
04"
05"
06"
07"
18"
09"
0:"
0;"
1<"
0="
0>"
0?"
0@"
0A"
1B"
0C"
0D"
1E"
0F"
0G"
0H"
1I"
0J"
0K"
0L"
0M"
0N"
0O"
0P"
1Q"
0R"
0S"
0T"
1U"
0V"
0W"
0X"
0Y"
0Z"
1["
0\"
0]"
1^"
0_"
0`"
0a"
1b"
0c"
0d"
0e"
0f"
0g"
0h"
0i"
1j"
0k"
0l"
0m"
1n"
0o"
0p"
0q"
0r"
0s"
1t"
0u"
0v"
1w"
0x"
0y"
0z"
1{"
0|"
0}"
0~"
0!#
0"#
0##
0$#
1%#
0&#
0'#
0(#
1)#
0*#
0+#
0,#
0-#
0.#
1/#
10#
01#
02#
13#
04#
05#
06#
17#
08#
09#
0:#
0;#
0<#
0=#
0>#
1?#
0@#
0A#
0B#
1C#
0D#
0E#
0F#
0G#
0H#
1I#
0J#
1K#
0L#
1M#
0N#
0O#
0P#
0Q#
0R#
0S#
1T#
0U#
0V#
0W#
1X#
0Y#
0Z#
0[#
0\#
0]#
0^#
0_#
1`#
0a#
0b#
0c#
1d#
0e#
1f#
0g#
0h#
0i#
0j#
0k#
1l#
0m#
0n#
0o#
0p#
1q#
0r#
0s#
0t#
1u#
1v#
0w#
0x#
0y#
0z#
0{#
1|#
1}#
0~#
0!$
0"$
0B$
0A$
0@$
0?$
0>$
0=$
0<$
0;$
0:$
09$
08$
07$
06$
05$
04$
03$
02$
01$
00$
0/$
0.$
0-$
0,$
0+$
0*$
0)$
0($
0'$
0&$
0%$
0$$
0#$
0b$
0a$
0`$
0_$
0^$
0]$
0\$
0[$
0Z$
0Y$
0X$
0W$
0V$
0U$
0T$
0S$
0R$
0Q$
0P$
0O$
0N$
0M$
0L$
0K$
0J$
0I$
0H$
0G$
0F$
0E$
0D$
0C$
$end
#5000
1!
1H
1B$
0;
1g#
0k!
1M
0i!
1L
04
1j#
1r!
1l!
0j!
0}#
0s!
1n!
#10000
0!
0H
#15000
1!
1H
0B$
1A$
0<
1;
1k!
0M
1i!
0L
0l!
1p!
1j!
14
03
1l!
0p!
0j!
0v!
1q!
1}#
0n!
1v!
0q!
0w!
1t!
1n!
1w!
0t!
1{!
1u!
0{!
0u!
#20000
0!
0H
#25000
1!
1H
1B$
0;
0k!
1M
0i!
1L
04
0l!
1p!
1j!
0}#
0v!
1q!
0n!
0w!
1t!
1{!
1u!
#30000
0!
0H
#35000
1!
1H
0B$
1?$
0A$
1@$
1=
1<
0>
1;
0g#
1k!
0M
1i!
0L
0f#
0y!
1|!
1w!
1l!
0p!
0j!
1i#
1s!
1v!
0q!
14
01
13
12
0j#
0r!
0l!
1j!
0i#
1g#
0}!
1q!
0t!
0|!
0w!
1}#
0{!
1n!
1x!
0s!
1j#
1t!
1}!
0n!
1#"
0u!
1{!
1y!
1u!
0#"
#40000
0!
0H
#45000
1!
1H
1B$
0;
0k!
1M
0i!
1L
04
1r!
1l!
0j!
0}#
0x!
1s!
1n!
0y!
#50000
0!
0H
#55000
1!
1H
0B$
1A$
0<
1;
1k!
0M
1i!
0L
0l!
1p!
1j!
14
03
1l!
0p!
0j!
0q!
1}#
0n!
1q!
0t!
1n!
1t!
0u!
1u!
#60000
0!
0H
#65000
1!
1H
1B$
0;
0k!
1M
0i!
1L
04
0l!
1p!
1j!
0}#
0q!
0n!
0t!
0u!
#70000
0!
0H
#75000
1!
1H
0B$
0A$
0@$
0=
1<
1;
1k!
0M
1i!
0L
1l!
0p!
0j!
0s!
0v!
1q!
14
13
02
0r!
0l!
1j!
1v!
0q!
1t!
1|!
1w!
1}#
1n!
1s!
0|!
0w!
0t!
0}!
0n!
1u!
0{!
1}!
1{!
0u!
1#"
0#"
#80000
0!
0H
#85000
1!
1H
1B$
0;
0k!
1M
0i!
1L
04
1r!
1l!
0j!
0}#
0s!
1n!
#90000
0!
0H
#95000
1!
1H
0B$
1A$
0<
1;
1k!
0M
1i!
0L
0l!
1p!
1j!
14
03
1l!
0p!
0j!
0v!
1q!
1}#
0n!
1v!
0q!
1|!
1w!
1t!
1n!
0|!
0w!
0t!
0}!
0{!
1u!
1}!
1{!
0u!
1#"
0#"
#100000
0!
0H
#105000
1!
1H
1B$
0;
1r#
0k!
1M
0i!
1L
04
0l!
1p!
1j!
0}#
0v!
1q!
0n!
1|!
1w!
1t!
0}!
0{!
1u!
1#"
#110000
0!
0H
#115000
1!
1H
0B$
1>$
0?$
0A$
1@$
1=
1<
1>
0?
1;
0r#
1k!
0M
1i!
0L
0!"
0$"
1}!
1y!
0|!
0w!
1l!
0p!
0j!
1s!
1v!
0q!
14
00
11
13
12
0r!
0l!
1j!
0%"
1$"
0}!
1q!
0t!
1w!
1}#
0#"
1{!
1n!
1x!
0s!
1%"
1t!
0n!
1)"
1#"
0u!
0{!
0~!
0y!
0)"
1u!
1!"
#120000
0!
0H
#125000
1!
1H
1B$
0;
0k!
1M
0i!
1L
04
1r!
1l!
0j!
0}#
0x!
1s!
1n!
1~!
1y!
0!"
#130000
0!
0H
#135000
1!
1H
0B$
1A$
0<
1;
1k!
0M
1i!
0L
0l!
1p!
1j!
14
03
1l!
0p!
0j!
0q!
1}#
0n!
1q!
0t!
1n!
1t!
0u!
1u!
#140000
0!
0H
#145000
1!
1H
1B$
0;
0k!
1M
0i!
1L
04
0l!
1p!
1j!
0}#
0q!
0n!
0t!
0u!
#150000
0!
0H
#155000
1!
1H
0B$
0A$
0@$
0=
1<
1;
1k!
0M
1i!
0L
1l!
0p!
0j!
0s!
0v!
1q!
14
13
02
0r!
0l!
1j!
1v!
0q!
1t!
0w!
1}#
1n!
1s!
1w!
0t!
0n!
1u!
1{!
0{!
0u!
#160000
0!
0H
#165000
1!
1H
1B$
0;
0k!
1M
0i!
1L
04
1r!
1l!
0j!
0}#
0s!
1n!
#170000
0!
0H
#175000
1!
1H
0B$
1A$
0<
1;
1k!
0M
1i!
0L
0l!
1p!
1j!
14
03
1l!
0p!
0j!
0v!
1q!
1}#
0n!
1v!
0q!
0w!
1t!
1n!
1w!
0t!
1{!
1u!
0{!
0u!
#180000
0!
0H
#185000
1!
1H
1B$
0;
0k!
1M
0i!
1L
04
0l!
1p!
1j!
0}#
0v!
1q!
0n!
0w!
1t!
1{!
1u!
#190000
0!
0H
#195000
1!
1H
0B$
1?$
0A$
1@$
1=
1<
0>
1;
1k!
0M
1i!
0L
0y!
1|!
1w!
1l!
0p!
0j!
1s!
1v!
0q!
14
01
13
12
0r!
0l!
1j!
0$"
1}!
1q!
0t!
0|!
0w!
1}#
0{!
1n!
1x!
0s!
0%"
1t!
1$"
0}!
0n!
0#"
0u!
1{!
1y!
1%"
1)"
1u!
1#"
0)"
#200000
0!
0H
#205000
1!
1H
1B$
0;
0k!
1M
0i!
1L
04
1r!
1l!
0j!
0}#
0x!
1s!
1n!
0y!
#210000
0!
0H
#215000
1!
1H
0B$
1A$
0<
1;
1k!
0M
1i!
0L
0l!
1p!
1j!
14
03
1l!
0p!
0j!
0q!
1}#
0n!
1q!
0t!
1n!
1t!
0u!
1u!
#220000
0!
0H
#225000
1!
1H
1B$
0;
0k!
1M
0i!
1L
04
0l!
1p!
1j!
0}#
0q!
0n!
0t!
0u!
#230000
0!
0H
#235000
1!
1H
0B$
0A$
0@$
0=
1<
1;
1k!
0M
1i!
0L
1l!
0p!
0j!
0s!
0v!
1q!
14
13
02
0r!
0l!
1j!
1v!
0q!
1t!
1|!
1w!
1}#
1n!
1s!
0|!
0w!
0t!
0$"
1}!
0n!
1u!
0{!
1$"
0}!
0%"
1{!
0u!
0#"
1%"
1#"
1)"
0)"
#240000
0!
0H
#245000
1!
1H
1B$
0;
0k!
1M
0i!
1L
04
1r!
1l!
0j!
0}#
0s!
1n!
#250000
0!
0H
#255000
1!
1H
0B$
1A$
0<
1;
1k!
0M
1i!
0L
0l!
1p!
1j!
14
03
1l!
0p!
0j!
0v!
1q!
1}#
0n!
1v!
0q!
1|!
1w!
1t!
1n!
0|!
0w!
0t!
0$"
1}!
0{!
1u!
1$"
0}!
0%"
1{!
0u!
0#"
1%"
1#"
1)"
0)"
#260000
0!
0H
#265000
1!
1H
1B$
0;
1r#
0k!
1M
0i!
1L
04
0l!
1p!
1j!
0}#
0v!
1q!
0n!
1|!
1w!
1t!
0$"
1}!
0{!
1u!
0%"
0#"
1)"
#270000
0!
0H
#275000
1!
1H
0B$
1=$
0>$
0?$
0A$
1@$
1=
1<
1>
1?
0@
1;
0r#
1k!
0M
1i!
0L
0'"
1*"
1%"
1!"
1$"
0}!
1y!
0|!
0w!
1l!
0p!
0j!
1s!
1v!
0q!
14
0/
10
11
13
12
0r!
0l!
1j!
00"
1+"
0*"
0%"
1}!
1q!
0t!
1w!
1}#
0)"
1#"
1{!
1n!
1x!
0s!
16"
11"
1."
10"
0+"
1t!
0n!
1)"
0#"
0u!
0{!
0~!
0y!
0<"
17"
14"
06"
01"
0."
1/"
1u!
1&"
0!"
1C"
1="
1:"
1<"
07"
04"
15"
0/"
1'"
0I"
1D"
1@"
0C"
0="
0:"
1;"
05"
1O"
1J"
1G"
1I"
0D"
0@"
1A"
0;"
0U"
1P"
1M"
0O"
0J"
0G"
1H"
0A"
1\"
1V"
1S"
1U"
0P"
0M"
1N"
0H"
0b"
1]"
1Y"
0\"
0V"
0S"
1T"
0N"
1h"
1c"
1`"
1b"
0]"
0Y"
1Z"
0T"
0n"
1i"
1f"
0h"
0c"
0`"
1a"
0Z"
1u"
1o"
1l"
1n"
0i"
0f"
1g"
0a"
0{"
1v"
1r"
0u"
0o"
0l"
1m"
0g"
1##
1|"
1y"
1{"
0v"
0r"
1s"
0m"
0)#
1$#
1!#
0##
0|"
0y"
1z"
0s"
11#
1*#
1'#
1)#
0$#
0!#
1"#
0z"
07#
12#
1-#
01#
0*#
0'#
1(#
0"#
1=#
18#
15#
17#
02#
0-#
1.#
0(#
0C#
1>#
1;#
0=#
08#
05#
16#
0.#
1J#
1D#
1A#
1C#
0>#
0;#
1<#
06#
0K#
1m#
1G#
0J#
0D#
0A#
1B#
0<#
1R#
1L#
1o#
1K#
0m#
0G#
1H#
0B#
0X#
1S#
1P#
0R#
0L#
0o#
1p#
0H#
1^#
1Y#
1V#
1X#
0S#
0P#
1Q#
0p#
0v#
1_#
1\#
0^#
0Y#
0V#
1W#
0Q#
1w#
1b#
1v#
0_#
0\#
1]#
0W#
1z#
0w#
0b#
1c#
0]#
0z#
1{#
0c#
0{#
#280000
0!
0H
#285000
1!
1H
1B$
0;
0k!
1M
0i!
1L
04
1r!
1l!
0j!
0}#
0x!
1s!
1n!
1~!
1y!
0&"
1!"
0'"
#290000
0!
0H
#295000
1!
1H
0B$
1A$
0<
1;
1k!
0M
1i!
0L
0l!
1p!
1j!
14
03
1l!
0p!
0j!
0q!
1}#
0n!
1q!
0t!
1n!
1t!
0u!
1u!
#300000
0!
0H
#305000
1!
1H
1B$
0;
0k!
1M
0i!
1L
04
0l!
1p!
1j!
0}#
0q!
0n!
0t!
0u!
#310000
0!
0H
